{
  "sync": {
    "radar": 1,
    "camera": 1,
    "lidar": 1,
    "depth": 0,
    "sync_threshold": {
      "radar_lidar": 10,
      "camera_lidar": 50,
      "camera_radar": 1000
    }
  },
  "radar": {
    "do": 0,
    "p_delta": {
      "do": 0,
      "config": "170121_delta"
    },
    "4d_fft": {
      "do": 0,
      "config": "170121_fft"
    }
  },
  "camera": 0,
  "lidar": 0,
  "gt": {
    "object_detection": 1,
    "segmentation": 0,
    "ensemble_2d": 0,
    "camera_lidar_fusion": 0
  },
  "gpu": 0,
  "samples": 10
}
