{
  "bb_extraction": {
    "cut_factors": [
      2.2,
      2.7,
      3,
      4,
      1
    ],
    "m_min_points_per_bb": 3,
    "m_min_points_per_cluster": 3
  },
  "clustering": {
    "type": "dbscan",
    "dbscan_epsilon": 1,
    "dbscan_min_points": 3
  },
  "size_estimation": 1,
  "association": {
    "active": 0,
    "m_max_distance_from_cluster_center": 0.5,
    "m_min_iou": 0.15,
    "m_max_2d_cog_distance": 0.6,
    "max_diameter_per_object": 1
  },
  "sub_clusters": {
    "active": 0
  },
  "data": "010121",
  "version": "v2"
}